{
  "shughni": {
    "interj": "pos",
    "nprop": "pos",
    "pers.pro": "pos",
    "v": "pos",
    "n": "pos",
    "dem": "pos",
    "prep": "pos",
    "dem.pro": "pos",
    "nprop": "pos",
    "prt": "pos",
    "adv": "pos",
    "PSC": "pos",
    "cnj": "pos",
    "post": "pos",
    "pro>pro": "pos",
    "num": "pos",
    "dem.prt": "pos",
    "adj": "pos",
    "adj.pro": "pos",
    "adj>adv": "affix",
    "PSC": "affix",
    "dem": "pos",
    "dem.adv": "pos",
    "v:Любой": "v.affix",
    "n:Любой": "n.affix",
    "adj:Любой": "adj.affix",
    "1": "pers",
    "2": "pers",
    "3": "pers",
    "dem1": "distType",
    "dem2": "distType",
    "dem3": "distType",
    "ABL": "case",
    "NOM": "case",
    "LOC": "postpositions",
    "LAT": "postpositions",
    "BEN": "postpositions",
    "DIR": "postpositions",
    "INS": "postpositions",
    "LIM": "postpositions",
    "COM": "postpositions",
    "SUP.ES": "postpositions",
    "POSS.LOC": "postpositions",
    "SUB": "prepositions",
    "EL": "prepositions",
    "ALL": "prepositions",
    "CONT": "prepositions",
    "INS": "prepositions",
    "SUP": "prepositions",
    "GOAL": "prepositions",
    "EQ": "prepositions",
    "LIM": "prepositions",
    "DIM": "wordFormation",
    "SUBST": "wordFormation",
    "ADJ": "wordFormation",
    "HB": "wordFormation",
    "COMP": "wordFormation",
    "ADV": "wordFormation",
    "REFL": "pronouns",
    "REFL.ADV": "pronouns",
    "REC": "pronouns",
    "which.NEG": "pronouns",
    "m": "nGend",
    "f": "nGend",
    "sg": "number",
    "pl": "number",
    "act": "voice",
    "pass": "voice",
    "med": "voice",
    "NPST": "vForm",
    "INF": "vForm",
    "PTCP": "vForm",
    "INF1": "vForm",
    "INF2": "vForm",
    "PST": "tense",
    "PF": "tense",
    "ITR": "transitivity",
    "PQP": "other",
    "NEG1": "negation",
    "NEG2": "negation",
    "PROH": "negation",
    "be.NEG": "negation",
    "PTCL": "particles",
    "ADD": "particles",
    "SUBD": "particles",
    "Q": "particles",
    "and": "particles",
    "PROSP": "particles",
    "REF": "particles",
    "IMP": "vForm",
    "n>adj": "affix"
  }
}